hw1-r-utkarsha
…
Tibbles are designed to make data manipulation and analysis more intuitive and less error-prone.

install.packages("tibble")

Installing package into '/cloud/lib/x86_64-pc-linux-gnu-library/4.3'
(as 'lib' is unspecified)

                                                                  library(tibble)

my.tibble <- tibble(TempCels = sample(-10:40, size=100, replace=TRUE), 
                    TempFahr = TempCels*9/5+32,
                    Location = rep(letters[1:2], each=50))
my.tibble

# A tibble: 100 × 3
   TempCels TempFahr Location
      <int>    <dbl> <chr>   
 1       24     75.2 a       
 2        7     44.6 a       
 3       32     89.6 a       
 4       -9     15.8 a       
 5        3     37.4 a       
 6       23     73.4 a       
 7       10     50   a       
 8       19     66.2 a       
 9        1     33.8 a       
10       16     60.8 a       
# ℹ 90 more rows
…
library(palmerpenguins)
data(penguins)
dim(penguins)

[1] 344   8

class(penguins)

[1] "tbl_df"     "tbl"        "data.frame"

penguins

# A tibble: 344 × 8
   species island    bill_length_mm bill_depth_mm flipper_length_mm body_mass_g
   <fct>   <fct>              <dbl>         <dbl>             <int>       <int>
 1 Adelie  Torgersen           39.1          18.7               181        3750
 2 Adelie  Torgersen           39.5          17.4               186        3800
 3 Adelie  Torgersen           40.3          18                 195        3250
 4 Adelie  Torgersen           NA            NA                  NA          NA
 5 Adelie  Torgersen           36.7          19.3               193        3450
 6 Adelie  Torgersen           39.3          20.6               190        3650
 7 Adelie  Torgersen           38.9          17.8               181        3625
 8 Adelie  Torgersen           39.2          19.6               195        4675
 9 Adelie  Torgersen           34.1          18.1               193        3475
10 Adelie  Torgersen           42            20.2               190        4250
# ℹ 334 more rows
# ℹ 2 more variables: sex <fct>, year <int>

pe <-as_tibble(penguins)
class(pe)

[1] "tbl_df"     "tbl"        "data.frame"

pe

# A tibble: 344 × 8
   species island    bill_length_mm bill_depth_mm flipper_length_mm body_mass_g
   <fct>   <fct>              <dbl>         <dbl>             <int>       <int>
 1 Adelie  Torgersen           39.1          18.7               181        3750
 2 Adelie  Torgersen           39.5          17.4               186        3800
 3 Adelie  Torgersen           40.3          18                 195        3250
 4 Adelie  Torgersen           NA            NA                  NA          NA
 5 Adelie  Torgersen           36.7          19.3               193        3450
 6 Adelie  Torgersen           39.3          20.6               190        3650
 7 Adelie  Torgersen           38.9          17.8               181        3625
 8 Adelie  Torgersen           39.2          19.6               195        4675
 9 Adelie  Torgersen           34.1          18.1               193        3475
10 Adelie  Torgersen           42            20.2               190        4250
# ℹ 334 more rows
# ℹ 2 more variables: sex <fct>, year <int>
…
library(dplyr)

Attaching package: 'dplyr'

The following objects are masked from 'package:stats':

    filter, lag

The following objects are masked from 'package:base':

    intersect, setdiff, setequal, union

select(filter(pe, species=="Adelie"), bill_length_mm, bill_depth_mm) #Select bill lengths and widths of species Adelie

# A tibble: 152 × 2
   bill_length_mm bill_depth_mm
            <dbl>         <dbl>
 1           39.1          18.7
 2           39.5          17.4
 3           40.3          18  
 4           NA            NA  
 5           36.7          19.3
 6           39.3          20.6
 7           38.9          17.8
 8           39.2          19.6
 9           34.1          18.1
10           42            20.2
# ℹ 142 more rows

filter(select(pe, bill_length_mm, bill_depth_mm, species), species=="Adelie")

# A tibble: 152 × 3
   bill_length_mm bill_depth_mm species
            <dbl>         <dbl> <fct>  
 1           39.1          18.7 Adelie 
 2           39.5          17.4 Adelie 
 3           40.3          18   Adelie 
 4           NA            NA   Adelie 
 5           36.7          19.3 Adelie 
 6           39.3          20.6 Adelie 
 7           38.9          17.8 Adelie 
 8           39.2          19.6 Adelie 
 9           34.1          18.1 Adelie 
10           42            20.2 Adelie 
# ℹ 142 more rows

Exercise

How would you achieve the same result as the above but use tibble subsetting?

pe

# A tibble: 344 × 8
   species island    bill_length_mm bill_depth_mm flipper_length_mm body_mass_g
   <fct>   <fct>              <dbl>         <dbl>             <int>       <int>
 1 Adelie  Torgersen           39.1          18.7               181        3750
 2 Adelie  Torgersen           39.5          17.4               186        3800
 3 Adelie  Torgersen           40.3          18                 195        3250
 4 Adelie  Torgersen           NA            NA                  NA          NA
 5 Adelie  Torgersen           36.7          19.3               193        3450
 6 Adelie  Torgersen           39.3          20.6               190        3650
 7 Adelie  Torgersen           38.9          17.8               181        3625
 8 Adelie  Torgersen           39.2          19.6               195        4675
 9 Adelie  Torgersen           34.1          18.1               193        3475
10 Adelie  Torgersen           42            20.2               190        4250
# ℹ 334 more rows
# ℹ 2 more variables: sex <fct>, year <int>

pe[pe$species=='Adelie', c("bill_length_mm", "bill_depth_mm")]

# A tibble: 152 × 2
   bill_length_mm bill_depth_mm
            <dbl>         <dbl>
 1           39.1          18.7
 2           39.5          17.4
 3           40.3          18  
 4           NA            NA  
 5           36.7          19.3
 6           39.3          20.6
 7           38.9          17.8
 8           39.2          19.6
 9           34.1          18.1
10           42            20.2
# ℹ 142 more rows

subset(pe, pe$species=='Adelie', c("bill_length_mm", "bill_depth_mm"))

# A tibble: 152 × 2
   bill_length_mm bill_depth_mm
            <dbl>         <dbl>
 1           39.1          18.7
 2           39.5          17.4
 3           40.3          18  
 4           NA            NA  
 5           36.7          19.3
 6           39.3          20.6
 7           38.9          17.8
 8           39.2          19.6
 9           34.1          18.1
10           42            20.2
# ℹ 142 more rows

select(pe, bill_length_mm, bill_depth_mm, species) |> filter(species=="Adelie")

# A tibble: 152 × 3
   bill_length_mm bill_depth_mm species
            <dbl>         <dbl> <fct>  
 1           39.1          18.7 Adelie 
 2           39.5          17.4 Adelie 
 3           40.3          18   Adelie 
 4           NA            NA   Adelie 
 5           36.7          19.3 Adelie 
 6           39.3          20.6 Adelie 
 7           38.9          17.8 Adelie 
 8           39.2          19.6 Adelie 
 9           34.1          18.1 Adelie 
10           42            20.2 Adelie 
# ℹ 142 more rows

filter(pe, species=="Adelie") |> select(bill_length_mm, bill_depth_mm, species)

# A tibble: 152 × 3
   bill_length_mm bill_depth_mm species
            <dbl>         <dbl> <fct>  
 1           39.1          18.7 Adelie 
 2           39.5          17.4 Adelie 
 3           40.3          18   Adelie 
 4           NA            NA   Adelie 
 5           36.7          19.3 Adelie 
 6           39.3          20.6 Adelie 
 7           38.9          17.8 Adelie 
 8           39.2          19.6 Adelie 
 9           34.1          18.1 Adelie 
10           42            20.2 Adelie 
# ℹ 142 more rows
…
